SDS 348 Project 1: Exploratory Data Analysis
…
new_states_2 %>% group_by(median_state_spending) %>% summarize(mean(State.Minimum.Wage.2020.Dollars))  #above median, higher mean SMW

## # A tibble: 2 x 2
##   median_state_spending `mean(State.Minimum.Wage.2020.Dollars)`
##   <fct>                                                   <dbl>
## 1 FALSE                                                    5.67
## 2 TRUE                                                     8.09

new_states_2 %>% group_by(median_state_spending) %>% mutate(avg_state_min_wage = mean(State.Minimum.Wage.2020.Dollars))  #New mean SMW variable

## # A tibble: 1,020 x 17
## # Groups:   median_state_spending [2]
##    State  Year Dollars_Spent_p… State.Minimum.W… State.Minimum.W…
##    <chr> <dbl>            <dbl>            <dbl>            <dbl>
##  1 Alab…  2000             4598                0                0
##  2 Alab…  2001             4651                0                0
##  3 Alab…  2002             4742                0                0
##  4 Alab…  2003             4831                0                0
##  5 Alab…  2004             4879                0                0
##  6 Alab…  2005             5064                0                0
##  7 Alab…  2006             5407                0                0
##  8 Alab…  2007             5830                0                0
##  9 Alab…  2008             6209                0                0
## 10 Alab…  2009             6107                0                0
## # … with 1,010 more rows, and 12 more variables: Federal.Minimum.Wage <dbl>,
## #   Federal.Minimum.Wage.2020.Dollars <dbl>, Effective.Minimum.Wage <dbl>,
## #   Effective.Minimum.Wage.2020.Dollars <dbl>, CPI.Average <dbl>,
## #   Department.Of.Labor.Cleaned.Low.Value <dbl>,
## #   Department.Of.Labor.Cleaned.Low.Value.2020.Dollars <dbl>,
## #   Department.Of.Labor.Cleaned.High.Value <dbl>,
## #   Department.Of.Labor.Cleaned.High.Value.2020.Dollars <dbl>,
## #   avg_state_spending <dbl>, median_state_spending <fct>,
## #   avg_state_min_wage <dbl>

new_states_2 %>% group_by(median_state_spending) %>% summarize(sd(State.Minimum.Wage.2020.Dollars))  #below the median, greater variance SMW

## # A tibble: 2 x 2
##   median_state_spending `sd(State.Minimum.Wage.2020.Dollars)`
##   <fct>                                                 <dbl>
## 1 FALSE                                                  3.42
## 2 TRUE                                                   1.27

new_states_2 %>% group_by(State) %>% summarize(sd = sd(State.Minimum.Wage)) %>% 
    arrange(desc(sd))  #Arizona

## # A tibble: 51 x 2
##    State                   sd
##    <chr>                <dbl>
##  1 Arizona               3.86
##  2 Florida               3.78
##  3 Kansas                2.25
##  4 Ohio                  2.16
##  5 District of Columbia  1.60
##  6 Wyoming               1.58
##  7 Texas                 1.56
##  8 New York              1.53
##  9 Washington            1.50
## 10 New Mexico            1.49
## # … with 41 more rows

new_states_2 %>% group_by(State) %>% summarize(mean = mean(State.Minimum.Wage)) %>% 
    arrange(desc(mean))  #Oregon

## # A tibble: 51 x 2
##    State                 mean
##    <chr>                <dbl>
##  1 Oregon                7.63
##  2 Washington            7.61
##  3 District of Columbia  7.42
##  4 Connecticut           7.33
##  5 Vermont               7.25
##  6 Massachusetts         7.24
##  7 California            7.22
##  8 Alaska                7.04
##  9 Rhode Island          6.93
## 10 Illinois              6.76
## # … with 41 more rows
…
cormat <- new_states_2 %>% select_if(is.numeric) %>% cor(use = "pair")
tidycor <- cormat %>% as.data.frame %>% rownames_to_column("var1") %>% 
    pivot_longer(-1, names_to = "var2", values_to = "correlation")
tidycor

## # A tibble: 196 x 3
##    var1  var2                                  correlation
##    <chr> <chr>                                       <dbl>
##  1 Year  Year                                        1    
##  2 Year  Dollars_Spent_per_Child                     0.376
##  3 Year  State.Minimum.Wage                          0.428
##  4 Year  State.Minimum.Wage.2020.Dollars             0.157
##  5 Year  Federal.Minimum.Wage                        0.900
##  6 Year  Federal.Minimum.Wage.2020.Dollars           0.233
##  7 Year  Effective.Minimum.Wage                      0.842
##  8 Year  Effective.Minimum.Wage.2020.Dollars         0.298
##  9 Year  CPI.Average                                 0.995
## 10 Year  Department.Of.Labor.Cleaned.Low.Value       0.428
## # … with 186 more rows
…
